{
	"tools": [
		{
			"name": "gradle",
			"test": "which gradle"
		},
		{
			"name": "protoc",
			"test": "which protoc"
		},
		{
			"name": "bazel",
			"test": "which bazel"
		}
	],
	"stages": [
		{
			"name": "update-protobuf-java",
			"command": {
				"bin": "protoc",
				"args": ["-I=chroma-protobuf", "--java_out=chroma-shard/src/main/java", "chroma-protobuf/common.proto", "chroma-protobuf/handshake.proto"]
			}
		},
		{
			"name": "compile-shard",
			"command": {
				"bin": "gradle",
				"args": ["shadowJar"],
				"dir": "chroma-shard",
				"artifacts": ["chroma-shard/build/libs/chroma-shard-all.jar"]
			},
			"deps": ["update-protobuf-java"]
		},
		{
			"name": "compile-backbone",
			"command": {
				"bin": "bazel",
				"args": ["build", "chroma-backbone"],
				"artifacts": ["bazel-bin/chroma-backbone/chroma-backbone"]
			}
		}
	]
}
